{
  "kind": "collectionType",
  "collectionName": "restaurants",
  "info": {
    "name": "Restaurant",
    "description": ""
  },
  "options": {
    "increments": true,
    "timestamps": true,
    "draftAndPublish": true
  },
  "pluginOptions": {},
  "attributes": {
    "title": {
      "type": "string"
    },
    "description": {
      "type": "richtext"
    },
    "patron": {
      "plugin": "users-permissions",
      "model": "user",
      "via": "restaurants"
    },
    "plats": {
      "collection": "plat",
      "via": "restaurant"
    },
    "photos": {
      "collection": "file",
      "via": "related",
      "allowedTypes": [
        "images",
        "files",
        "videos"
      ],
      "plugin": "upload",
      "required": false,
      "pluginOptions": {}
    },
    "adresse": {
      "type": "component",
      "repeatable": false,
      "component": "user.adresse"
    }
  }
}
